{
    "description": "Holds common operation types for child service descriptions to extend.",
    "operations": {
        "BaseOperation": {
            "method": "POST",
            "uri": "/{scope}/{call}.xml.aspx",
        },

        "AuthenticatedOperation": {
            "extends": "BaseOperation",
            "parameters": {
                "keyID": {
                    "type": "integer",
                    "location": "postField",
                    "required": true
                },
                "vCode": {
                    "type": "string",
                    "location": "postField",
                    "required": true
                }
            }
        }
    }
}
